{
	"genericName": "Laws of Lycurgus",
	"autoResearch": true,
	"description": "Under the constitution written by the mythical lawgiver Lycurgus, the institution of the Agoge was established, where Spartans were trained from the age of 6 to be superior warriors in defense of the Spartan state.",
	"icon": "agoge.png",
	"tooltip": "Champion Hoplites are available in p1, and may promote to Olympic champions.",
	"requirements": { "civ": "spart" },
	"affects": ["Champion Spearman"]
}
